module gitlab.com/nikonor/rredis

go 1.18

require (
	github.com/go-redis/redis v6.15.9+incompatible
	gitlab.com/nikonor/eerrors v1.0.0
	gitlab.com/nikonor/llog v1.0.0
)

require (
	github.com/onsi/ginkgo v1.16.5 // indirect
	github.com/onsi/gomega v1.19.0 // indirect
)
